{
  "project_info": {
    "project_number": "326806202729",
    "firebase_url": "https://farmermarket-89.firebaseio.com",
    "project_id": "farmermarket-89",
    "storage_bucket": "farmermarket-89.appspot.com"
  },
  "client": [
    {
      "client_info": {
        "mobilesdk_app_id": "1:326806202729:android:58595dad00e473a62975f8",
        "android_client_info": {
          "package_name": "com.example.farmer_market"
        }
      },
      "oauth_client": [
        {
          "client_id": "326806202729-v9fbcjdedub9pu985bf7v3e9bm5k18o5.apps.googleusercontent.com",
          "client_type": 3
        }
      ],
      "api_key": [
        {
          "current_key": "AIzaSyDVImCjstfuKPsrBfCcVve0wH4zsOLVjG0"
        }
      ],
      "services": {
        "appinvite_service": {
          "other_platform_oauth_client": [
            {
              "client_id": "326806202729-v9fbcjdedub9pu985bf7v3e9bm5k18o5.apps.googleusercontent.com",
              "client_type": 3
            }
          ]
        }
      }
    }
  ],
  "configuration_version": "1"
}